date,close
2020-03-05,1
2020-03-10,2
2020-03-11,4
2020-03-12,4
2020-03-13,3
2020-03-15,5
2020-03-16,4
2020-03-17,4
2020-03-18,2
2020-03-19,1
2020-03-20,2
2020-03-21,2
2020-03-22,3
2020-03-23,4
2020-03-24,3
2020-03-25,8
2020-03-26,5
2020-03-27,5
2020-03-28,5
2020-03-29,5
2020-03-30,9
2020-03-31,7
2020-04-01,3
2020-04-02,12
2020-04-03,7
2020-04-04,2
2020-04-05,4
2020-04-06,10
2020-04-07,8
2020-04-08,8
2020-04-09,13
2020-04-10,2
2020-04-11,3
2020-04-12,4
2020-04-13,11
2020-04-14,13
2020-04-15,9
2020-04-16,9
2020-04-17,11
2020-04-18,7
2020-04-19,10
2020-04-20,8
2020-04-21,18
2020-04-22,19
2020-04-23,24
2020-04-24,37
2020-04-25,23
2020-04-26,16
2020-04-27,68
2020-04-28,49
2020-04-29,49
2020-04-30,45
2020-05-01,66
2020-05-02,22
2020-05-03,36
2020-05-04,95
2020-05-05,81
2020-05-06,68
2020-05-07,85
2020-05-08,97
2020-05-09,34
2020-05-10,43
2020-05-11,122
2020-05-12,88
2020-05-13,114
2020-05-14,130
2020-05-15,101
2020-05-16,52
2020-05-17,68
2020-05-18,143
2020-05-19,138
2020-05-20,134
2020-05-21,177
2020-05-22,114
2020-05-23,82
2020-05-24,67
2020-05-25,77
2020-05-26,120
2020-05-27,120
2020-05-28,108
2020-05-29,77
2020-05-30,41
2020-05-31,25
2020-06-01,78
2020-06-02,89
2020-06-03,71
2020-06-04,58
2020-06-05,80
2020-06-06,29
2020-06-07,21
2020-06-08,62
2020-06-09,60
2020-06-10,85
2020-06-11,43
2020-06-12,54
2020-06-13,20
2020-06-14,29
2020-06-15,51
2020-06-16,63
2020-06-17,65
2020-06-18,52
2020-06-19,60
2020-06-20,27
2020-06-21,22
2020-06-22,50
2020-06-23,76
2020-06-24,49
2020-06-25,37
2020-06-26,56
2020-06-27,26
2020-06-28,21
2020-06-29,59
2020-06-30,53
2020-07-01,66
2020-07-02,67
2020-07-03,39
2020-07-04,11
2020-07-05,32
2020-07-06,55
2020-07-07,73
2020-07-08,75
2020-07-09,79
2020-07-10,74
2020-07-11,35
2020-07-12,34
2020-07-13,72
2020-07-14,92
2020-07-15,79
2020-07-16,95
2020-07-17,70
2020-07-18,39
2020-07-19,56
2020-07-20,88
2020-07-21,96
2020-07-22,83
2020-07-23,86
2020-07-24,98
2020-07-25,44
2020-07-26,46
2020-07-27,84
2020-07-28,81
2020-07-29,38
2020-07-30,18
2020-07-31,1